<svg xmlns="http://www.w3.org/2000/svg" width="22.085" height="22.085" viewBox="0 0 22.085 22.085">
  <g id="pause" transform="translate(0 -0.003)">
    <path id="Path_594" data-name="Path 594" d="M22.085,11.046A11.043,11.043,0,1,0,11.043,22.088,11.042,11.042,0,0,0,22.085,11.046Z" fill="#e5aa17"/>
    <g id="Group_65" data-name="Group 65" transform="translate(6.814 5.392)">
      <path id="Path_595" data-name="Path 595" d="M156.192,121.066h-2.671a.445.445,0,0,0-.445.445v10.417a.445.445,0,0,0,.445.445h2.671a.445.445,0,0,0,.445-.445V121.511A.445.445,0,0,0,156.192,121.066Z" transform="translate(-153.076 -121.066)" fill="#fff"/>
      <path id="Path_596" data-name="Path 596" d="M266.192,121.066h-2.671a.445.445,0,0,0-.445.445v10.417a.445.445,0,0,0,.445.445h2.671a.445.445,0,0,0,.445-.445V121.511A.445.445,0,0,0,266.192,121.066Z" transform="translate(-258.18 -121.066)" fill="#fff"/>
    </g>
  </g>
</svg>
