<svg xmlns="http://www.w3.org/2000/svg" width="47.74" height="47.74" viewBox="0 0 47.74 47.74">
  <g id="Group_255" data-name="Group 255" transform="translate(1 1)">
    <path id="Path_68" data-name="Path 68" d="M49.9,169.1a22.89,22.89,0,0,0,26.418,0Z" transform="translate(-40.058 -128.126)" fill="#f7941e"/>
    <g id="Group_33" data-name="Group 33" transform="translate(9.842 4.87)">
      <g id="Group_32" data-name="Group 32" transform="translate(0 4.402)">
        <rect id="Rectangle_67" data-name="Rectangle 67" width="5.361" height="5.983" transform="translate(10.334 22.585)" fill="#fdcc9b"/>
        <path id="Path_69" data-name="Path 69" d="M89.8,134.6a9.14,9.14,0,0,0,5.361,1.114V133.9H89.8Z" transform="translate(-79.466 -111.315)" fill="#fcbc85"/>
        <ellipse id="Ellipse_36" data-name="Ellipse 36" cx="2.616" cy="2.979" rx="2.616" ry="2.979" transform="translate(0 10.308)" fill="#fcbc85"/>
        <ellipse id="Ellipse_37" data-name="Ellipse 37" cx="2.616" cy="2.979" rx="2.616" ry="2.979" transform="translate(20.798 10.308)" fill="#fcbc85"/>
        <path id="Path_70" data-name="Path 70" d="M80.842,54.289c0-4.377-3.212-7.589-10.386-7.589S60.07,49.912,60.07,54.289s-.751,15.955,10.386,15.955S80.842,58.692,80.842,54.289Z" transform="translate(-57.428 -46.7)" fill="#fdcc9b"/>
        <g id="Group_31" data-name="Group 31" transform="translate(6.059 8.055)">
          <g id="Group_29" data-name="Group 29" transform="translate(0.779 3.289)">
            <ellipse id="Ellipse_38" data-name="Ellipse 38" cx="1.114" cy="1.243" rx="1.114" ry="1.243" fill="#3b2519"/>
            <ellipse id="Ellipse_39" data-name="Ellipse 39" cx="0.337" cy="0.337" rx="0.337" ry="0.337" transform="translate(0.311 0.363)" fill="#fff"/>
          </g>
          <path id="Path_71" data-name="Path 71" d="M73.4,79.276c.544.259,1.373-.907,3.341.1.363.181.57-1.58-1.528-1.58C73.4,77.8,73.087,79.121,73.4,79.276Z" transform="translate(-73.293 -77.8)" fill="#51362a"/>
          <g id="Group_30" data-name="Group 30" transform="translate(11.035 3.289)">
            <ellipse id="Ellipse_40" data-name="Ellipse 40" cx="1.114" cy="1.243" rx="1.114" ry="1.243" fill="#3b2519"/>
            <ellipse id="Ellipse_41" data-name="Ellipse 41" cx="0.337" cy="0.337" rx="0.337" ry="0.337" transform="translate(0.285 0.363)" fill="#fff"/>
          </g>
          <path id="Path_72" data-name="Path 72" d="M116.379,79.276c-.544.259-1.373-.907-3.341.1-.363.181-.57-1.58,1.528-1.58C116.379,77.8,116.715,79.121,116.379,79.276Z" transform="translate(-102.572 -77.8)" fill="#51362a"/>
        </g>
        <path id="Path_73" data-name="Path 73" d="M95.087,110.444c-1.114,0-1.787-.829-1.787-.44,0,.414.311,1.166,1.787,1.166s1.787-.751,1.787-1.166C96.848,109.615,96.2,110.444,95.087,110.444Z" transform="translate(-82.059 -93.531)" fill="#fcbc85"/>
        <path id="Path_74" data-name="Path 74" d="M98.422,125.659c-.389,0-.622-.285-.622-.155s.1.414.622.414.622-.259.622-.414C99.017,125.374,98.81,125.659,98.422,125.659Z" transform="translate(-85.394 -105.068)" fill="#fcbc85"/>
        <path id="Path_75" data-name="Path 75" d="M92.123,120.661a14.042,14.042,0,0,1-2.823-.544c0,.181.518.907,2.823.907s2.823-.725,2.823-.907A14.042,14.042,0,0,1,92.123,120.661Z" transform="translate(-79.095 -101.08)" fill="#f7945e"/>
      </g>
      <path id="Path_76" data-name="Path 76" d="M63,143.2v6.734H50C50,147.215,56.838,143.2,63,143.2Z" transform="translate(-49.974 -113.804)" fill="#f7941e"/>
      <path id="Path_77" data-name="Path 77" d="M100.2,143.2v6.734h13C113.2,147.215,106.338,143.2,100.2,143.2Z" transform="translate(-87.172 -113.804)" fill="#f7941e"/>
      <path id="Path_78" data-name="Path 78" d="M88.937,143.2a16.9,16.9,0,0,0-3.937.492,5.32,5.32,0,0,0,3.937,1.865,5.807,5.807,0,0,0,4.092-1.839A18.452,18.452,0,0,0,88.937,143.2Z" transform="translate(-75.909 -113.804)" fill="#f36c21"/>
      <path id="Path_79" data-name="Path 79" d="M89.8,142.816a4.192,4.192,0,0,0,5.335,0A8.4,8.4,0,0,0,89.8,142.816Z" transform="translate(-79.466 -113.187)" fill="#fdcc9b"/>
      <path id="Path_80" data-name="Path 80" d="M75.118,33.174s-3.859-4.9-11.862-3.056-8.6,6.656-8.366,11.344.881,7.433,1.632,7.1.363-3.445.44-4.144c.078-.725.8-3.937,5.672-3.471a19.983,19.983,0,0,0,8.987-1.3s1.658,2.1,2.745,2.486c2.176.8,1.45,6.138,2.305,6.138S81.7,35.971,75.118,33.174Z" transform="translate(-53.569 -29.705)" fill="#51362a"/>
    </g>
    <ellipse id="Ellipse_42" data-name="Ellipse 42" cx="22.87" cy="22.87" rx="22.87" ry="22.87" transform="translate(0 0)" fill="none" stroke="#269d9a" stroke-miterlimit="10" stroke-width="2"/>
  </g>
</svg>
